module gitlab.com/GoGerman/go-geo

go 1.20

require (
	github.com/Masterminds/squirrel v1.5.4
	github.com/gin-gonic/gin v1.9.0
	github.com/google/uuid v1.3.0
	github.com/gorilla/websocket v1.5.0
	github.com/jmoiron/sqlx v1.3.5
	github.com/joho/godotenv v1.5.1
	github.com/kellydunn/golang-geo v0.7.0
	github.com/lib/pq v1.10.9
	github.com/prometheus/client_golang v1.16.0
	github.com/ptflp/godecoder v0.0.1
	github.com/redis/go-redis/v9 v9.0.4
	github.com/robertkrimen/otto v0.2.1
	github.com/stretchr/testify v1.8.1
	github.com/valyala/quicktemplate v1.7.0
	github.com/volatiletech/null/v8 v8.1.2
	go.uber.org/zap v1.24.0
	golang.org/x/sync v0.3.0
)

require (
	github.com/beorn7/perks v1.0.1 // indirect
	github.com/bytedance/sonic v1.8.0 // indirect
	github.com/cespare/xxhash/v2 v2.2.0 // indirect
	github.com/chenzhuoyu/base64x v0.0.0-20221115062448-fe3a3abad311 // indirect
	github.com/davecgh/go-spew v1.1.1 // indirect
	github.com/dgryski/go-rendezvous v0.0.0-20200823014737-9f7001d12a5f // indirect
	github.com/erikstmartin/go-testdb v0.0.0-20160219214506-8d10e4a1bae5 // indirect
	github.com/friendsofgo/errors v0.9.2 // indirect
	github.com/gin-contrib/sse v0.1.0 // indirect
	github.com/go-playground/locales v0.14.1 // indirect
	github.com/go-playground/universal-translator v0.18.1 // indirect
	github.com/go-playground/validator/v10 v10.11.2 // indirect
	github.com/go-sql-driver/mysql v1.7.1 // indirect
	github.com/goccy/go-json v0.10.0 // indirect
	github.com/gofrs/uuid v3.2.0+incompatible // indirect
	github.com/golang/protobuf v1.5.3 // indirect
	github.com/json-iterator/go v1.1.12 // indirect
	github.com/klauspost/cpuid/v2 v2.0.9 // indirect
	github.com/kylelemons/go-gypsy v1.0.0 // indirect
	github.com/lann/builder v0.0.0-20180802200727-47ae307949d0 // indirect
	github.com/lann/ps v0.0.0-20150810152359-62de8c46ede0 // indirect
	github.com/leodido/go-urn v1.2.1 // indirect
	github.com/mattn/go-isatty v0.0.17 // indirect
	github.com/matttproud/golang_protobuf_extensions v1.0.4 // indirect
	github.com/modern-go/concurrent v0.0.0-20180306012644-bacd9c7ef1dd // indirect
	github.com/modern-go/reflect2 v1.0.2 // indirect
	github.com/pelletier/go-toml/v2 v2.0.6 // indirect
	github.com/pmezard/go-difflib v1.0.0 // indirect
	github.com/prometheus/client_model v0.3.0 // indirect
	github.com/prometheus/common v0.42.0 // indirect
	github.com/prometheus/procfs v0.10.1 // indirect
	github.com/stretchr/objx v0.5.0 // indirect
	github.com/twitchyliquid64/golang-asm v0.15.1 // indirect
	github.com/ugorji/go/codec v1.2.9 // indirect
	github.com/valyala/bytebufferpool v1.0.0 // indirect
	github.com/volatiletech/inflect v0.0.1 // indirect
	github.com/volatiletech/randomize v0.0.1 // indirect
	github.com/volatiletech/strmangle v0.0.1 // indirect
	github.com/ziutek/mymysql v1.5.4 // indirect
	go.uber.org/atomic v1.7.0 // indirect
	go.uber.org/goleak v1.2.1 // indirect
	go.uber.org/multierr v1.6.0 // indirect
	golang.org/x/arch v0.0.0-20210923205945-b76863e36670 // indirect
	golang.org/x/crypto v0.10.0 // indirect
	golang.org/x/net v0.10.0 // indirect
	golang.org/x/sys v0.9.0 // indirect
	golang.org/x/text v0.10.0 // indirect
	golang.org/x/xerrors v0.0.0-20191204190536-9bdfabe68543 // indirect
	google.golang.org/protobuf v1.31.0 // indirect
	gopkg.in/sourcemap.v1 v1.0.5 // indirect
	gopkg.in/yaml.v3 v3.0.1 // indirect
)
